^C:\USERS\BARRY\DOCUMENTS\VISUAL STUDIO 2017\PROJECTS\ASTAR\MYASTAR\MYASTAR\SOURCE.CPP
C:\USERS\BARRY\DOCUMENTS\VISUAL STUDIO 2017\PROJECTS\ASTAR\MYASTAR\MYASTAR\GRID.H
E:\PROGRAMS\VISUAL STUDIO 2017\COMMUNITY\VC\TOOLS\MSVC\14.11.25503\INCLUDE\VECTOR
E:\PROGRAMS\VISUAL STUDIO 2017\COMMUNITY\VC\TOOLS\MSVC\14.11.25503\INCLUDE\XMEMORY
E:\PROGRAMS\VISUAL STUDIO 2017\COMMUNITY\VC\TOOLS\MSVC\14.11.25503\INCLUDE\XMEMORY0
E:\PROGRAMS\VISUAL STUDIO 2017\COMMUNITY\VC\TOOLS\MSVC\14.11.25503\INCLUDE\CSTDINT
E:\PROGRAMS\VISUAL STUDIO 2017\COMMUNITY\VC\TOOLS\MSVC\14.11.25503\INCLUDE\YVALS.H
E:\PROGRAMS\VISUAL STUDIO 2017\COMMUNITY\VC\TOOLS\MSVC\14.11.25503\INCLUDE\XKEYCHECK.H
E:\PROGRAMS\VISUAL STUDIO 2017\COMMUNITY\VC\TOOLS\MSVC\14.11.25503\INCLUDE\CRTDEFS.H
E:\PROGRAMS\VISUAL STUDIO 2017\COMMUNITY\VC\TOOLS\MSVC\14.11.25503\INCLUDE\VCRUNTIME.H
E:\PROGRAMS\VISUAL STUDIO 2017\COMMUNITY\VC\TOOLS\MSVC\14.11.25503\INCLUDE\SAL.H
E:\PROGRAMS\VISUAL STUDIO 2017\COMMUNITY\VC\TOOLS\MSVC\14.11.25503\INCLUDE\CONCURRENCYSAL.H
E:\PROGRAMS\VISUAL STUDIO 2017\COMMUNITY\VC\TOOLS\MSVC\14.11.25503\INCLUDE\VADEFS.H
C:\PROGRAM FILES (X86)\WINDOWS KITS\10\INCLUDE\10.0.15063.0\UCRT\CORECRT.H
E:\PROGRAMS\VISUAL STUDIO 2017\COMMUNITY\VC\TOOLS\MSVC\14.11.25503\INCLUDE\USE_ANSI.H
E:\PROGRAMS\VISUAL STUDIO 2017\COMMUNITY\VC\TOOLS\MSVC\14.11.25503\INCLUDE\STDINT.H
E:\PROGRAMS\VISUAL STUDIO 2017\COMMUNITY\VC\TOOLS\MSVC\14.11.25503\INCLUDE\CSTDLIB
C:\PROGRAM FILES (X86)\WINDOWS KITS\10\INCLUDE\10.0.15063.0\UCRT\STDLIB.H
C:\PROGRAM FILES (X86)\WINDOWS KITS\10\INCLUDE\10.0.15063.0\UCRT\CORECRT_MALLOC.H
C:\PROGRAM FILES (X86)\WINDOWS KITS\10\INCLUDE\10.0.15063.0\UCRT\CORECRT_SEARCH.H
C:\PROGRAM FILES (X86)\WINDOWS KITS\10\INCLUDE\10.0.15063.0\UCRT\STDDEF.H
C:\PROGRAM FILES (X86)\WINDOWS KITS\10\INCLUDE\10.0.15063.0\UCRT\CORECRT_WSTDLIB.H
E:\PROGRAMS\VISUAL STUDIO 2017\COMMUNITY\VC\TOOLS\MSVC\14.11.25503\INCLUDE\LIMITS.H
C:\PROGRAM FILES (X86)\WINDOWS KITS\10\INCLUDE\10.0.15063.0\UCRT\MATH.H
C:\PROGRAM FILES (X86)\WINDOWS KITS\10\INCLUDE\10.0.15063.0\UCRT\CORECRT_MATH.H
E:\PROGRAMS\VISUAL STUDIO 2017\COMMUNITY\VC\TOOLS\MSVC\14.11.25503\INCLUDE\LIMITS
E:\PROGRAMS\VISUAL STUDIO 2017\COMMUNITY\VC\TOOLS\MSVC\14.11.25503\INCLUDE\YMATH.H
E:\PROGRAMS\VISUAL STUDIO 2017\COMMUNITY\VC\TOOLS\MSVC\14.11.25503\INCLUDE\CFLOAT
C:\PROGRAM FILES (X86)\WINDOWS KITS\10\INCLUDE\10.0.15063.0\UCRT\FLOAT.H
E:\PROGRAMS\VISUAL STUDIO 2017\COMMUNITY\VC\TOOLS\MSVC\14.11.25503\INCLUDE\CLIMITS
E:\PROGRAMS\VISUAL STUDIO 2017\COMMUNITY\VC\TOOLS\MSVC\14.11.25503\INCLUDE\CMATH
E:\PROGRAMS\VISUAL STUDIO 2017\COMMUNITY\VC\TOOLS\MSVC\14.11.25503\INCLUDE\XTGMATH.H
E:\PROGRAMS\VISUAL STUDIO 2017\COMMUNITY\VC\TOOLS\MSVC\14.11.25503\INCLUDE\XTR1COMMON
E:\PROGRAMS\VISUAL STUDIO 2017\COMMUNITY\VC\TOOLS\MSVC\14.11.25503\INCLUDE\CWCHAR
C:\PROGRAM FILES (X86)\WINDOWS KITS\10\INCLUDE\10.0.15063.0\UCRT\WCHAR.H
C:\PROGRAM FILES (X86)\WINDOWS KITS\10\INCLUDE\10.0.15063.0\UCRT\CORECRT_MEMCPY_S.H
C:\PROGRAM FILES (X86)\WINDOWS KITS\10\INCLUDE\10.0.15063.0\UCRT\ERRNO.H
E:\PROGRAMS\VISUAL STUDIO 2017\COMMUNITY\VC\TOOLS\MSVC\14.11.25503\INCLUDE\VCRUNTIME_STRING.H
C:\PROGRAM FILES (X86)\WINDOWS KITS\10\INCLUDE\10.0.15063.0\UCRT\CORECRT_WCONIO.H
C:\PROGRAM FILES (X86)\WINDOWS KITS\10\INCLUDE\10.0.15063.0\UCRT\CORECRT_STDIO_CONFIG.H
C:\PROGRAM FILES (X86)\WINDOWS KITS\10\INCLUDE\10.0.15063.0\UCRT\CORECRT_WCTYPE.H
C:\PROGRAM FILES (X86)\WINDOWS KITS\10\INCLUDE\10.0.15063.0\UCRT\CORECRT_WDIRECT.H
C:\PROGRAM FILES (X86)\WINDOWS KITS\10\INCLUDE\10.0.15063.0\UCRT\CORECRT_WIO.H
C:\PROGRAM FILES (X86)\WINDOWS KITS\10\INCLUDE\10.0.15063.0\UCRT\CORECRT_SHARE.H
C:\PROGRAM FILES (X86)\WINDOWS KITS\10\INCLUDE\10.0.15063.0\UCRT\CORECRT_WPROCESS.H
C:\PROGRAM FILES (X86)\WINDOWS KITS\10\INCLUDE\10.0.15063.0\UCRT\CORECRT_WSTDIO.H
C:\PROGRAM FILES (X86)\WINDOWS KITS\10\INCLUDE\10.0.15063.0\UCRT\CORECRT_WSTRING.H
C:\PROGRAM FILES (X86)\WINDOWS KITS\10\INCLUDE\10.0.15063.0\UCRT\CORECRT_WTIME.H
C:\PROGRAM FILES (X86)\WINDOWS KITS\10\INCLUDE\10.0.15063.0\UCRT\SYS\STAT.H
C:\PROGRAM FILES (X86)\WINDOWS KITS\10\INCLUDE\10.0.15063.0\UCRT\SYS\TYPES.H
E:\PROGRAMS\VISUAL STUDIO 2017\COMMUNITY\VC\TOOLS\MSVC\14.11.25503\INCLUDE\XSTDDEF
E:\PROGRAMS\VISUAL STUDIO 2017\COMMUNITY\VC\TOOLS\MSVC\14.11.25503\INCLUDE\CSTDDEF
E:\PROGRAMS\VISUAL STUDIO 2017\COMMUNITY\VC\TOOLS\MSVC\14.11.25503\INCLUDE\INITIALIZER_LIST
E:\PROGRAMS\VISUAL STUDIO 2017\COMMUNITY\VC\TOOLS\MSVC\14.11.25503\INCLUDE\NEW
E:\PROGRAMS\VISUAL STUDIO 2017\COMMUNITY\VC\TOOLS\MSVC\14.11.25503\INCLUDE\EXCEPTION
E:\PROGRAMS\VISUAL STUDIO 2017\COMMUNITY\VC\TOOLS\MSVC\14.11.25503\INCLUDE\TYPE_TRAITS
C:\PROGRAM FILES (X86)\WINDOWS KITS\10\INCLUDE\10.0.15063.0\UCRT\MALLOC.H
E:\PROGRAMS\VISUAL STUDIO 2017\COMMUNITY\VC\TOOLS\MSVC\14.11.25503\INCLUDE\VCRUNTIME_EXCEPTION.H
E:\PROGRAMS\VISUAL STUDIO 2017\COMMUNITY\VC\TOOLS\MSVC\14.11.25503\INCLUDE\EH.H
C:\PROGRAM FILES (X86)\WINDOWS KITS\10\INCLUDE\10.0.15063.0\UCRT\CORECRT_TERMINATE.H
E:\PROGRAMS\VISUAL STUDIO 2017\COMMUNITY\VC\TOOLS\MSVC\14.11.25503\INCLUDE\VCRUNTIME_NEW.H
E:\PROGRAMS\VISUAL STUDIO 2017\COMMUNITY\VC\TOOLS\MSVC\14.11.25503\INCLUDE\XUTILITY
E:\PROGRAMS\VISUAL STUDIO 2017\COMMUNITY\VC\TOOLS\MSVC\14.11.25503\INCLUDE\UTILITY
E:\PROGRAMS\VISUAL STUDIO 2017\COMMUNITY\VC\TOOLS\MSVC\14.11.25503\INCLUDE\IOSFWD
E:\PROGRAMS\VISUAL STUDIO 2017\COMMUNITY\VC\TOOLS\MSVC\14.11.25503\INCLUDE\CSTDIO
C:\PROGRAM FILES (X86)\WINDOWS KITS\10\INCLUDE\10.0.15063.0\UCRT\STDIO.H
E:\PROGRAMS\VISUAL STUDIO 2017\COMMUNITY\VC\TOOLS\MSVC\14.11.25503\INCLUDE\CSTRING
C:\PROGRAM FILES (X86)\WINDOWS KITS\10\INCLUDE\10.0.15063.0\UCRT\STRING.H
C:\PROGRAM FILES (X86)\WINDOWS KITS\10\INCLUDE\10.0.15063.0\UCRT\CORECRT_MEMORY.H
C:\PROGRAM FILES (X86)\WINDOWS KITS\10\INCLUDE\10.0.15063.0\UCRT\CRTDBG.H
E:\PROGRAMS\VISUAL STUDIO 2017\COMMUNITY\VC\TOOLS\MSVC\14.11.25503\INCLUDE\VCRUNTIME_NEW_DEBUG.H
E:\PROGRAMS\VISUAL STUDIO 2017\COMMUNITY\VC\TOOLS\MSVC\14.11.25503\INCLUDE\XATOMIC0.H
E:\PROGRAMS\VISUAL STUDIO 2017\COMMUNITY\VC\TOOLS\MSVC\14.11.25503\INCLUDE\INTRIN0.H
E:\PROGRAMS\VISUAL STUDIO 2017\COMMUNITY\VC\TOOLS\MSVC\14.11.25503\INCLUDE\STDEXCEPT
E:\PROGRAMS\VISUAL STUDIO 2017\COMMUNITY\VC\TOOLS\MSVC\14.11.25503\INCLUDE\XSTRING
C:\USERS\BARRY\DOCUMENTS\VISUAL STUDIO 2017\PROJECTS\ASTAR\MYASTAR\MYASTAR\PATHFINDER.H
C:\USERS\BARRY\DOCUMENTS\VISUAL STUDIO 2017\PROJECTS\ASTAR\MYASTAR\MYASTAR\GRIDCELL.H
E:\PROGRAMS\VISUAL STUDIO 2017\COMMUNITY\VC\TOOLS\MSVC\14.11.25503\INCLUDE\IOSTREAM
E:\PROGRAMS\VISUAL STUDIO 2017\COMMUNITY\VC\TOOLS\MSVC\14.11.25503\INCLUDE\ISTREAM
E:\PROGRAMS\VISUAL STUDIO 2017\COMMUNITY\VC\TOOLS\MSVC\14.11.25503\INCLUDE\OSTREAM
E:\PROGRAMS\VISUAL STUDIO 2017\COMMUNITY\VC\TOOLS\MSVC\14.11.25503\INCLUDE\IOS
E:\PROGRAMS\VISUAL STUDIO 2017\COMMUNITY\VC\TOOLS\MSVC\14.11.25503\INCLUDE\XLOCNUM
E:\PROGRAMS\VISUAL STUDIO 2017\COMMUNITY\VC\TOOLS\MSVC\14.11.25503\INCLUDE\STREAMBUF
E:\PROGRAMS\VISUAL STUDIO 2017\COMMUNITY\VC\TOOLS\MSVC\14.11.25503\INCLUDE\XIOSBASE
E:\PROGRAMS\VISUAL STUDIO 2017\COMMUNITY\VC\TOOLS\MSVC\14.11.25503\INCLUDE\XLOCALE
E:\PROGRAMS\VISUAL STUDIO 2017\COMMUNITY\VC\TOOLS\MSVC\14.11.25503\INCLUDE\TYPEINFO
E:\PROGRAMS\VISUAL STUDIO 2017\COMMUNITY\VC\TOOLS\MSVC\14.11.25503\INCLUDE\VCRUNTIME_TYPEINFO.H
E:\PROGRAMS\VISUAL STUDIO 2017\COMMUNITY\VC\TOOLS\MSVC\14.11.25503\INCLUDE\XLOCINFO
E:\PROGRAMS\VISUAL STUDIO 2017\COMMUNITY\VC\TOOLS\MSVC\14.11.25503\INCLUDE\XLOCINFO.H
C:\PROGRAM FILES (X86)\WINDOWS KITS\10\INCLUDE\10.0.15063.0\UCRT\CTYPE.H
C:\PROGRAM FILES (X86)\WINDOWS KITS\10\INCLUDE\10.0.15063.0\UCRT\LOCALE.H
E:\PROGRAMS\VISUAL STUDIO 2017\COMMUNITY\VC\TOOLS\MSVC\14.11.25503\INCLUDE\XFACET
E:\PROGRAMS\VISUAL STUDIO 2017\COMMUNITY\VC\TOOLS\MSVC\14.11.25503\INCLUDE\SYSTEM_ERROR
E:\PROGRAMS\VISUAL STUDIO 2017\COMMUNITY\VC\TOOLS\MSVC\14.11.25503\INCLUDE\CERRNO
E:\PROGRAMS\VISUAL STUDIO 2017\COMMUNITY\VC\TOOLS\MSVC\14.11.25503\INCLUDE\XCALL_ONCE.H
C:\PROGRAM FILES (X86)\WINDOWS KITS\10\INCLUDE\10.0.15063.0\UCRT\SHARE.H
C:\WINDOWS\GLOBALIZATION\SORTING\SORTDEFAULT.NLS
E:\PROGRAMS\VISUAL STUDIO 2017\COMMUNITY\VC\TOOLS\MSVC\14.11.25503\BIN\HOSTX86\X86\1033\CLUI.DLL
C:\WINDOWS\SYSTEM32\TZRES.DLL
^C:\USERS\BARRY\DOCUMENTS\VISUAL STUDIO 2017\PROJECTS\ASTAR\MYASTAR\MYASTAR\PATHFINDER.CPP
C:\USERS\BARRY\DOCUMENTS\VISUAL STUDIO 2017\PROJECTS\ASTAR\MYASTAR\MYASTAR\PATHFINDER.H
C:\USERS\BARRY\DOCUMENTS\VISUAL STUDIO 2017\PROJECTS\ASTAR\MYASTAR\MYASTAR\GRIDCELL.H
C:\PROGRAM FILES (X86)\WINDOWS KITS\10\INCLUDE\10.0.15063.0\UCRT\MATH.H
C:\PROGRAM FILES (X86)\WINDOWS KITS\10\INCLUDE\10.0.15063.0\UCRT\CORECRT_MATH.H
C:\PROGRAM FILES (X86)\WINDOWS KITS\10\INCLUDE\10.0.15063.0\UCRT\CORECRT.H
E:\PROGRAMS\VISUAL STUDIO 2017\COMMUNITY\VC\TOOLS\MSVC\14.11.25503\INCLUDE\VCRUNTIME.H
E:\PROGRAMS\VISUAL STUDIO 2017\COMMUNITY\VC\TOOLS\MSVC\14.11.25503\INCLUDE\SAL.H
E:\PROGRAMS\VISUAL STUDIO 2017\COMMUNITY\VC\TOOLS\MSVC\14.11.25503\INCLUDE\CONCURRENCYSAL.H
E:\PROGRAMS\VISUAL STUDIO 2017\COMMUNITY\VC\TOOLS\MSVC\14.11.25503\INCLUDE\VADEFS.H
E:\PROGRAMS\VISUAL STUDIO 2017\COMMUNITY\VC\TOOLS\MSVC\14.11.25503\INCLUDE\VECTOR
E:\PROGRAMS\VISUAL STUDIO 2017\COMMUNITY\VC\TOOLS\MSVC\14.11.25503\INCLUDE\XMEMORY
E:\PROGRAMS\VISUAL STUDIO 2017\COMMUNITY\VC\TOOLS\MSVC\14.11.25503\INCLUDE\XMEMORY0
E:\PROGRAMS\VISUAL STUDIO 2017\COMMUNITY\VC\TOOLS\MSVC\14.11.25503\INCLUDE\CSTDINT
E:\PROGRAMS\VISUAL STUDIO 2017\COMMUNITY\VC\TOOLS\MSVC\14.11.25503\INCLUDE\YVALS.H
E:\PROGRAMS\VISUAL STUDIO 2017\COMMUNITY\VC\TOOLS\MSVC\14.11.25503\INCLUDE\XKEYCHECK.H
E:\PROGRAMS\VISUAL STUDIO 2017\COMMUNITY\VC\TOOLS\MSVC\14.11.25503\INCLUDE\CRTDEFS.H
E:\PROGRAMS\VISUAL STUDIO 2017\COMMUNITY\VC\TOOLS\MSVC\14.11.25503\INCLUDE\USE_ANSI.H
E:\PROGRAMS\VISUAL STUDIO 2017\COMMUNITY\VC\TOOLS\MSVC\14.11.25503\INCLUDE\STDINT.H
E:\PROGRAMS\VISUAL STUDIO 2017\COMMUNITY\VC\TOOLS\MSVC\14.11.25503\INCLUDE\CSTDLIB
C:\PROGRAM FILES (X86)\WINDOWS KITS\10\INCLUDE\10.0.15063.0\UCRT\STDLIB.H
C:\PROGRAM FILES (X86)\WINDOWS KITS\10\INCLUDE\10.0.15063.0\UCRT\CORECRT_MALLOC.H
C:\PROGRAM FILES (X86)\WINDOWS KITS\10\INCLUDE\10.0.15063.0\UCRT\CORECRT_SEARCH.H
C:\PROGRAM FILES (X86)\WINDOWS KITS\10\INCLUDE\10.0.15063.0\UCRT\STDDEF.H
C:\PROGRAM FILES (X86)\WINDOWS KITS\10\INCLUDE\10.0.15063.0\UCRT\CORECRT_WSTDLIB.H
E:\PROGRAMS\VISUAL STUDIO 2017\COMMUNITY\VC\TOOLS\MSVC\14.11.25503\INCLUDE\LIMITS.H
E:\PROGRAMS\VISUAL STUDIO 2017\COMMUNITY\VC\TOOLS\MSVC\14.11.25503\INCLUDE\LIMITS
E:\PROGRAMS\VISUAL STUDIO 2017\COMMUNITY\VC\TOOLS\MSVC\14.11.25503\INCLUDE\YMATH.H
E:\PROGRAMS\VISUAL STUDIO 2017\COMMUNITY\VC\TOOLS\MSVC\14.11.25503\INCLUDE\CFLOAT
C:\PROGRAM FILES (X86)\WINDOWS KITS\10\INCLUDE\10.0.15063.0\UCRT\FLOAT.H
E:\PROGRAMS\VISUAL STUDIO 2017\COMMUNITY\VC\TOOLS\MSVC\14.11.25503\INCLUDE\CLIMITS
E:\PROGRAMS\VISUAL STUDIO 2017\COMMUNITY\VC\TOOLS\MSVC\14.11.25503\INCLUDE\CMATH
E:\PROGRAMS\VISUAL STUDIO 2017\COMMUNITY\VC\TOOLS\MSVC\14.11.25503\INCLUDE\XTGMATH.H
E:\PROGRAMS\VISUAL STUDIO 2017\COMMUNITY\VC\TOOLS\MSVC\14.11.25503\INCLUDE\XTR1COMMON
E:\PROGRAMS\VISUAL STUDIO 2017\COMMUNITY\VC\TOOLS\MSVC\14.11.25503\INCLUDE\CWCHAR
C:\PROGRAM FILES (X86)\WINDOWS KITS\10\INCLUDE\10.0.15063.0\UCRT\WCHAR.H
C:\PROGRAM FILES (X86)\WINDOWS KITS\10\INCLUDE\10.0.15063.0\UCRT\CORECRT_MEMCPY_S.H
C:\PROGRAM FILES (X86)\WINDOWS KITS\10\INCLUDE\10.0.15063.0\UCRT\ERRNO.H
E:\PROGRAMS\VISUAL STUDIO 2017\COMMUNITY\VC\TOOLS\MSVC\14.11.25503\INCLUDE\VCRUNTIME_STRING.H
C:\PROGRAM FILES (X86)\WINDOWS KITS\10\INCLUDE\10.0.15063.0\UCRT\CORECRT_WCONIO.H
C:\PROGRAM FILES (X86)\WINDOWS KITS\10\INCLUDE\10.0.15063.0\UCRT\CORECRT_STDIO_CONFIG.H
C:\PROGRAM FILES (X86)\WINDOWS KITS\10\INCLUDE\10.0.15063.0\UCRT\CORECRT_WCTYPE.H
C:\PROGRAM FILES (X86)\WINDOWS KITS\10\INCLUDE\10.0.15063.0\UCRT\CORECRT_WDIRECT.H
C:\PROGRAM FILES (X86)\WINDOWS KITS\10\INCLUDE\10.0.15063.0\UCRT\CORECRT_WIO.H
C:\PROGRAM FILES (X86)\WINDOWS KITS\10\INCLUDE\10.0.15063.0\UCRT\CORECRT_SHARE.H
C:\PROGRAM FILES (X86)\WINDOWS KITS\10\INCLUDE\10.0.15063.0\UCRT\CORECRT_WPROCESS.H
C:\PROGRAM FILES (X86)\WINDOWS KITS\10\INCLUDE\10.0.15063.0\UCRT\CORECRT_WSTDIO.H
C:\PROGRAM FILES (X86)\WINDOWS KITS\10\INCLUDE\10.0.15063.0\UCRT\CORECRT_WSTRING.H
C:\PROGRAM FILES (X86)\WINDOWS KITS\10\INCLUDE\10.0.15063.0\UCRT\CORECRT_WTIME.H
C:\PROGRAM FILES (X86)\WINDOWS KITS\10\INCLUDE\10.0.15063.0\UCRT\SYS\STAT.H
C:\PROGRAM FILES (X86)\WINDOWS KITS\10\INCLUDE\10.0.15063.0\UCRT\SYS\TYPES.H
E:\PROGRAMS\VISUAL STUDIO 2017\COMMUNITY\VC\TOOLS\MSVC\14.11.25503\INCLUDE\XSTDDEF
E:\PROGRAMS\VISUAL STUDIO 2017\COMMUNITY\VC\TOOLS\MSVC\14.11.25503\INCLUDE\CSTDDEF
E:\PROGRAMS\VISUAL STUDIO 2017\COMMUNITY\VC\TOOLS\MSVC\14.11.25503\INCLUDE\INITIALIZER_LIST
E:\PROGRAMS\VISUAL STUDIO 2017\COMMUNITY\VC\TOOLS\MSVC\14.11.25503\INCLUDE\NEW
E:\PROGRAMS\VISUAL STUDIO 2017\COMMUNITY\VC\TOOLS\MSVC\14.11.25503\INCLUDE\EXCEPTION
E:\PROGRAMS\VISUAL STUDIO 2017\COMMUNITY\VC\TOOLS\MSVC\14.11.25503\INCLUDE\TYPE_TRAITS
C:\PROGRAM FILES (X86)\WINDOWS KITS\10\INCLUDE\10.0.15063.0\UCRT\MALLOC.H
E:\PROGRAMS\VISUAL STUDIO 2017\COMMUNITY\VC\TOOLS\MSVC\14.11.25503\INCLUDE\VCRUNTIME_EXCEPTION.H
E:\PROGRAMS\VISUAL STUDIO 2017\COMMUNITY\VC\TOOLS\MSVC\14.11.25503\INCLUDE\EH.H
C:\PROGRAM FILES (X86)\WINDOWS KITS\10\INCLUDE\10.0.15063.0\UCRT\CORECRT_TERMINATE.H
E:\PROGRAMS\VISUAL STUDIO 2017\COMMUNITY\VC\TOOLS\MSVC\14.11.25503\INCLUDE\VCRUNTIME_NEW.H
E:\PROGRAMS\VISUAL STUDIO 2017\COMMUNITY\VC\TOOLS\MSVC\14.11.25503\INCLUDE\XUTILITY
E:\PROGRAMS\VISUAL STUDIO 2017\COMMUNITY\VC\TOOLS\MSVC\14.11.25503\INCLUDE\UTILITY
E:\PROGRAMS\VISUAL STUDIO 2017\COMMUNITY\VC\TOOLS\MSVC\14.11.25503\INCLUDE\IOSFWD
E:\PROGRAMS\VISUAL STUDIO 2017\COMMUNITY\VC\TOOLS\MSVC\14.11.25503\INCLUDE\CSTDIO
C:\PROGRAM FILES (X86)\WINDOWS KITS\10\INCLUDE\10.0.15063.0\UCRT\STDIO.H
E:\PROGRAMS\VISUAL STUDIO 2017\COMMUNITY\VC\TOOLS\MSVC\14.11.25503\INCLUDE\CSTRING
C:\PROGRAM FILES (X86)\WINDOWS KITS\10\INCLUDE\10.0.15063.0\UCRT\STRING.H
C:\PROGRAM FILES (X86)\WINDOWS KITS\10\INCLUDE\10.0.15063.0\UCRT\CORECRT_MEMORY.H
C:\PROGRAM FILES (X86)\WINDOWS KITS\10\INCLUDE\10.0.15063.0\UCRT\CRTDBG.H
E:\PROGRAMS\VISUAL STUDIO 2017\COMMUNITY\VC\TOOLS\MSVC\14.11.25503\INCLUDE\VCRUNTIME_NEW_DEBUG.H
E:\PROGRAMS\VISUAL STUDIO 2017\COMMUNITY\VC\TOOLS\MSVC\14.11.25503\INCLUDE\XATOMIC0.H
E:\PROGRAMS\VISUAL STUDIO 2017\COMMUNITY\VC\TOOLS\MSVC\14.11.25503\INCLUDE\INTRIN0.H
E:\PROGRAMS\VISUAL STUDIO 2017\COMMUNITY\VC\TOOLS\MSVC\14.11.25503\INCLUDE\STDEXCEPT
E:\PROGRAMS\VISUAL STUDIO 2017\COMMUNITY\VC\TOOLS\MSVC\14.11.25503\INCLUDE\XSTRING
^C:\USERS\BARRY\DOCUMENTS\VISUAL STUDIO 2017\PROJECTS\ASTAR\MYASTAR\MYASTAR\GRID.CPP
C:\USERS\BARRY\DOCUMENTS\VISUAL STUDIO 2017\PROJECTS\ASTAR\MYASTAR\MYASTAR\GRID.H
E:\PROGRAMS\VISUAL STUDIO 2017\COMMUNITY\VC\TOOLS\MSVC\14.11.25503\INCLUDE\VECTOR
E:\PROGRAMS\VISUAL STUDIO 2017\COMMUNITY\VC\TOOLS\MSVC\14.11.25503\INCLUDE\XMEMORY
E:\PROGRAMS\VISUAL STUDIO 2017\COMMUNITY\VC\TOOLS\MSVC\14.11.25503\INCLUDE\XMEMORY0
E:\PROGRAMS\VISUAL STUDIO 2017\COMMUNITY\VC\TOOLS\MSVC\14.11.25503\INCLUDE\CSTDINT
E:\PROGRAMS\VISUAL STUDIO 2017\COMMUNITY\VC\TOOLS\MSVC\14.11.25503\INCLUDE\YVALS.H
E:\PROGRAMS\VISUAL STUDIO 2017\COMMUNITY\VC\TOOLS\MSVC\14.11.25503\INCLUDE\XKEYCHECK.H
E:\PROGRAMS\VISUAL STUDIO 2017\COMMUNITY\VC\TOOLS\MSVC\14.11.25503\INCLUDE\CRTDEFS.H
E:\PROGRAMS\VISUAL STUDIO 2017\COMMUNITY\VC\TOOLS\MSVC\14.11.25503\INCLUDE\VCRUNTIME.H
E:\PROGRAMS\VISUAL STUDIO 2017\COMMUNITY\VC\TOOLS\MSVC\14.11.25503\INCLUDE\SAL.H
E:\PROGRAMS\VISUAL STUDIO 2017\COMMUNITY\VC\TOOLS\MSVC\14.11.25503\INCLUDE\CONCURRENCYSAL.H
E:\PROGRAMS\VISUAL STUDIO 2017\COMMUNITY\VC\TOOLS\MSVC\14.11.25503\INCLUDE\VADEFS.H
C:\PROGRAM FILES (X86)\WINDOWS KITS\10\INCLUDE\10.0.15063.0\UCRT\CORECRT.H
E:\PROGRAMS\VISUAL STUDIO 2017\COMMUNITY\VC\TOOLS\MSVC\14.11.25503\INCLUDE\USE_ANSI.H
E:\PROGRAMS\VISUAL STUDIO 2017\COMMUNITY\VC\TOOLS\MSVC\14.11.25503\INCLUDE\STDINT.H
E:\PROGRAMS\VISUAL STUDIO 2017\COMMUNITY\VC\TOOLS\MSVC\14.11.25503\INCLUDE\CSTDLIB
C:\PROGRAM FILES (X86)\WINDOWS KITS\10\INCLUDE\10.0.15063.0\UCRT\STDLIB.H
C:\PROGRAM FILES (X86)\WINDOWS KITS\10\INCLUDE\10.0.15063.0\UCRT\CORECRT_MALLOC.H
C:\PROGRAM FILES (X86)\WINDOWS KITS\10\INCLUDE\10.0.15063.0\UCRT\CORECRT_SEARCH.H
C:\PROGRAM FILES (X86)\WINDOWS KITS\10\INCLUDE\10.0.15063.0\UCRT\STDDEF.H
C:\PROGRAM FILES (X86)\WINDOWS KITS\10\INCLUDE\10.0.15063.0\UCRT\CORECRT_WSTDLIB.H
E:\PROGRAMS\VISUAL STUDIO 2017\COMMUNITY\VC\TOOLS\MSVC\14.11.25503\INCLUDE\LIMITS.H
C:\PROGRAM FILES (X86)\WINDOWS KITS\10\INCLUDE\10.0.15063.0\UCRT\MATH.H
C:\PROGRAM FILES (X86)\WINDOWS KITS\10\INCLUDE\10.0.15063.0\UCRT\CORECRT_MATH.H
E:\PROGRAMS\VISUAL STUDIO 2017\COMMUNITY\VC\TOOLS\MSVC\14.11.25503\INCLUDE\LIMITS
E:\PROGRAMS\VISUAL STUDIO 2017\COMMUNITY\VC\TOOLS\MSVC\14.11.25503\INCLUDE\YMATH.H
E:\PROGRAMS\VISUAL STUDIO 2017\COMMUNITY\VC\TOOLS\MSVC\14.11.25503\INCLUDE\CFLOAT
C:\PROGRAM FILES (X86)\WINDOWS KITS\10\INCLUDE\10.0.15063.0\UCRT\FLOAT.H
E:\PROGRAMS\VISUAL STUDIO 2017\COMMUNITY\VC\TOOLS\MSVC\14.11.25503\INCLUDE\CLIMITS
E:\PROGRAMS\VISUAL STUDIO 2017\COMMUNITY\VC\TOOLS\MSVC\14.11.25503\INCLUDE\CMATH
E:\PROGRAMS\VISUAL STUDIO 2017\COMMUNITY\VC\TOOLS\MSVC\14.11.25503\INCLUDE\XTGMATH.H
E:\PROGRAMS\VISUAL STUDIO 2017\COMMUNITY\VC\TOOLS\MSVC\14.11.25503\INCLUDE\XTR1COMMON
E:\PROGRAMS\VISUAL STUDIO 2017\COMMUNITY\VC\TOOLS\MSVC\14.11.25503\INCLUDE\CWCHAR
C:\PROGRAM FILES (X86)\WINDOWS KITS\10\INCLUDE\10.0.15063.0\UCRT\WCHAR.H
C:\PROGRAM FILES (X86)\WINDOWS KITS\10\INCLUDE\10.0.15063.0\UCRT\CORECRT_MEMCPY_S.H
C:\PROGRAM FILES (X86)\WINDOWS KITS\10\INCLUDE\10.0.15063.0\UCRT\ERRNO.H
E:\PROGRAMS\VISUAL STUDIO 2017\COMMUNITY\VC\TOOLS\MSVC\14.11.25503\INCLUDE\VCRUNTIME_STRING.H
C:\PROGRAM FILES (X86)\WINDOWS KITS\10\INCLUDE\10.0.15063.0\UCRT\CORECRT_WCONIO.H
C:\PROGRAM FILES (X86)\WINDOWS KITS\10\INCLUDE\10.0.15063.0\UCRT\CORECRT_STDIO_CONFIG.H
C:\PROGRAM FILES (X86)\WINDOWS KITS\10\INCLUDE\10.0.15063.0\UCRT\CORECRT_WCTYPE.H
C:\PROGRAM FILES (X86)\WINDOWS KITS\10\INCLUDE\10.0.15063.0\UCRT\CORECRT_WDIRECT.H
C:\PROGRAM FILES (X86)\WINDOWS KITS\10\INCLUDE\10.0.15063.0\UCRT\CORECRT_WIO.H
C:\PROGRAM FILES (X86)\WINDOWS KITS\10\INCLUDE\10.0.15063.0\UCRT\CORECRT_SHARE.H
C:\PROGRAM FILES (X86)\WINDOWS KITS\10\INCLUDE\10.0.15063.0\UCRT\CORECRT_WPROCESS.H
C:\PROGRAM FILES (X86)\WINDOWS KITS\10\INCLUDE\10.0.15063.0\UCRT\CORECRT_WSTDIO.H
C:\PROGRAM FILES (X86)\WINDOWS KITS\10\INCLUDE\10.0.15063.0\UCRT\CORECRT_WSTRING.H
C:\PROGRAM FILES (X86)\WINDOWS KITS\10\INCLUDE\10.0.15063.0\UCRT\CORECRT_WTIME.H
C:\PROGRAM FILES (X86)\WINDOWS KITS\10\INCLUDE\10.0.15063.0\UCRT\SYS\STAT.H
C:\PROGRAM FILES (X86)\WINDOWS KITS\10\INCLUDE\10.0.15063.0\UCRT\SYS\TYPES.H
E:\PROGRAMS\VISUAL STUDIO 2017\COMMUNITY\VC\TOOLS\MSVC\14.11.25503\INCLUDE\XSTDDEF
E:\PROGRAMS\VISUAL STUDIO 2017\COMMUNITY\VC\TOOLS\MSVC\14.11.25503\INCLUDE\CSTDDEF
E:\PROGRAMS\VISUAL STUDIO 2017\COMMUNITY\VC\TOOLS\MSVC\14.11.25503\INCLUDE\INITIALIZER_LIST
E:\PROGRAMS\VISUAL STUDIO 2017\COMMUNITY\VC\TOOLS\MSVC\14.11.25503\INCLUDE\NEW
E:\PROGRAMS\VISUAL STUDIO 2017\COMMUNITY\VC\TOOLS\MSVC\14.11.25503\INCLUDE\EXCEPTION
E:\PROGRAMS\VISUAL STUDIO 2017\COMMUNITY\VC\TOOLS\MSVC\14.11.25503\INCLUDE\TYPE_TRAITS
C:\PROGRAM FILES (X86)\WINDOWS KITS\10\INCLUDE\10.0.15063.0\UCRT\MALLOC.H
E:\PROGRAMS\VISUAL STUDIO 2017\COMMUNITY\VC\TOOLS\MSVC\14.11.25503\INCLUDE\VCRUNTIME_EXCEPTION.H
E:\PROGRAMS\VISUAL STUDIO 2017\COMMUNITY\VC\TOOLS\MSVC\14.11.25503\INCLUDE\EH.H
C:\PROGRAM FILES (X86)\WINDOWS KITS\10\INCLUDE\10.0.15063.0\UCRT\CORECRT_TERMINATE.H
E:\PROGRAMS\VISUAL STUDIO 2017\COMMUNITY\VC\TOOLS\MSVC\14.11.25503\INCLUDE\VCRUNTIME_NEW.H
E:\PROGRAMS\VISUAL STUDIO 2017\COMMUNITY\VC\TOOLS\MSVC\14.11.25503\INCLUDE\XUTILITY
E:\PROGRAMS\VISUAL STUDIO 2017\COMMUNITY\VC\TOOLS\MSVC\14.11.25503\INCLUDE\UTILITY
E:\PROGRAMS\VISUAL STUDIO 2017\COMMUNITY\VC\TOOLS\MSVC\14.11.25503\INCLUDE\IOSFWD
E:\PROGRAMS\VISUAL STUDIO 2017\COMMUNITY\VC\TOOLS\MSVC\14.11.25503\INCLUDE\CSTDIO
C:\PROGRAM FILES (X86)\WINDOWS KITS\10\INCLUDE\10.0.15063.0\UCRT\STDIO.H
E:\PROGRAMS\VISUAL STUDIO 2017\COMMUNITY\VC\TOOLS\MSVC\14.11.25503\INCLUDE\CSTRING
C:\PROGRAM FILES (X86)\WINDOWS KITS\10\INCLUDE\10.0.15063.0\UCRT\STRING.H
C:\PROGRAM FILES (X86)\WINDOWS KITS\10\INCLUDE\10.0.15063.0\UCRT\CORECRT_MEMORY.H
C:\PROGRAM FILES (X86)\WINDOWS KITS\10\INCLUDE\10.0.15063.0\UCRT\CRTDBG.H
E:\PROGRAMS\VISUAL STUDIO 2017\COMMUNITY\VC\TOOLS\MSVC\14.11.25503\INCLUDE\VCRUNTIME_NEW_DEBUG.H
E:\PROGRAMS\VISUAL STUDIO 2017\COMMUNITY\VC\TOOLS\MSVC\14.11.25503\INCLUDE\XATOMIC0.H
E:\PROGRAMS\VISUAL STUDIO 2017\COMMUNITY\VC\TOOLS\MSVC\14.11.25503\INCLUDE\INTRIN0.H
E:\PROGRAMS\VISUAL STUDIO 2017\COMMUNITY\VC\TOOLS\MSVC\14.11.25503\INCLUDE\STDEXCEPT
E:\PROGRAMS\VISUAL STUDIO 2017\COMMUNITY\VC\TOOLS\MSVC\14.11.25503\INCLUDE\XSTRING
C:\PROGRAM FILES (X86)\WINDOWS KITS\10\INCLUDE\10.0.15063.0\UCRT\TIME.H
E:\PROGRAMS\VISUAL STUDIO 2017\COMMUNITY\VC\TOOLS\MSVC\14.11.25503\INCLUDE\IOSTREAM
E:\PROGRAMS\VISUAL STUDIO 2017\COMMUNITY\VC\TOOLS\MSVC\14.11.25503\INCLUDE\ISTREAM
E:\PROGRAMS\VISUAL STUDIO 2017\COMMUNITY\VC\TOOLS\MSVC\14.11.25503\INCLUDE\OSTREAM
E:\PROGRAMS\VISUAL STUDIO 2017\COMMUNITY\VC\TOOLS\MSVC\14.11.25503\INCLUDE\IOS
E:\PROGRAMS\VISUAL STUDIO 2017\COMMUNITY\VC\TOOLS\MSVC\14.11.25503\INCLUDE\XLOCNUM
E:\PROGRAMS\VISUAL STUDIO 2017\COMMUNITY\VC\TOOLS\MSVC\14.11.25503\INCLUDE\STREAMBUF
E:\PROGRAMS\VISUAL STUDIO 2017\COMMUNITY\VC\TOOLS\MSVC\14.11.25503\INCLUDE\XIOSBASE
E:\PROGRAMS\VISUAL STUDIO 2017\COMMUNITY\VC\TOOLS\MSVC\14.11.25503\INCLUDE\XLOCALE
E:\PROGRAMS\VISUAL STUDIO 2017\COMMUNITY\VC\TOOLS\MSVC\14.11.25503\INCLUDE\TYPEINFO
E:\PROGRAMS\VISUAL STUDIO 2017\COMMUNITY\VC\TOOLS\MSVC\14.11.25503\INCLUDE\VCRUNTIME_TYPEINFO.H
E:\PROGRAMS\VISUAL STUDIO 2017\COMMUNITY\VC\TOOLS\MSVC\14.11.25503\INCLUDE\XLOCINFO
E:\PROGRAMS\VISUAL STUDIO 2017\COMMUNITY\VC\TOOLS\MSVC\14.11.25503\INCLUDE\XLOCINFO.H
C:\PROGRAM FILES (X86)\WINDOWS KITS\10\INCLUDE\10.0.15063.0\UCRT\CTYPE.H
C:\PROGRAM FILES (X86)\WINDOWS KITS\10\INCLUDE\10.0.15063.0\UCRT\LOCALE.H
E:\PROGRAMS\VISUAL STUDIO 2017\COMMUNITY\VC\TOOLS\MSVC\14.11.25503\INCLUDE\XFACET
E:\PROGRAMS\VISUAL STUDIO 2017\COMMUNITY\VC\TOOLS\MSVC\14.11.25503\INCLUDE\SYSTEM_ERROR
E:\PROGRAMS\VISUAL STUDIO 2017\COMMUNITY\VC\TOOLS\MSVC\14.11.25503\INCLUDE\CERRNO
E:\PROGRAMS\VISUAL STUDIO 2017\COMMUNITY\VC\TOOLS\MSVC\14.11.25503\INCLUDE\XCALL_ONCE.H
C:\PROGRAM FILES (X86)\WINDOWS KITS\10\INCLUDE\10.0.15063.0\UCRT\SHARE.H
C:\USERS\BARRY\DOCUMENTS\VISUAL STUDIO 2017\PROJECTS\ASTAR\MYASTAR\MYASTAR\PATHFINDER.H
C:\USERS\BARRY\DOCUMENTS\VISUAL STUDIO 2017\PROJECTS\ASTAR\MYASTAR\MYASTAR\GRIDCELL.H
