^C:\USERS\BARRY\DOCUMENTS\VISUAL STUDIO 2017\PROJECTS\ASTAR\MYASTAR\MYASTAR\DEBUG\GRID.OBJ|C:\USERS\BARRY\DOCUMENTS\VISUAL STUDIO 2017\PROJECTS\ASTAR\MYASTAR\MYASTAR\DEBUG\PATHFINDER.OBJ|C:\USERS\BARRY\DOCUMENTS\VISUAL STUDIO 2017\PROJECTS\ASTAR\MYASTAR\MYASTAR\DEBUG\SOURCE.OBJ
C:\USERS\BARRY\DOCUMENTS\VISUAL STUDIO 2017\PROJECTS\ASTAR\MYASTAR\DEBUG\MYASTAR.EXE
C:\USERS\BARRY\DOCUMENTS\VISUAL STUDIO 2017\PROJECTS\ASTAR\MYASTAR\DEBUG\MYASTAR.ILK
C:\USERS\BARRY\DOCUMENTS\VISUAL STUDIO 2017\PROJECTS\ASTAR\MYASTAR\DEBUG\MYASTAR.PDB
