^C:\USERS\BARRY\DOCUMENTS\VISUAL STUDIO 2017\PROJECTS\ASTAR\MYASTAR\MYASTAR\DEBUG\GRID.OBJ|C:\USERS\BARRY\DOCUMENTS\VISUAL STUDIO 2017\PROJECTS\ASTAR\MYASTAR\MYASTAR\DEBUG\PATHFINDER.OBJ|C:\USERS\BARRY\DOCUMENTS\VISUAL STUDIO 2017\PROJECTS\ASTAR\MYASTAR\MYASTAR\DEBUG\SOURCE.OBJ
C:\WINDOWS\GLOBALIZATION\SORTING\SORTDEFAULT.NLS
C:\PROGRAM FILES (X86)\WINDOWS KITS\10\LIB\10.0.15063.0\UM\X86\KERNEL32.LIB
C:\PROGRAM FILES (X86)\WINDOWS KITS\10\LIB\10.0.15063.0\UM\X86\USER32.LIB
C:\PROGRAM FILES (X86)\WINDOWS KITS\10\LIB\10.0.15063.0\UM\X86\GDI32.LIB
C:\PROGRAM FILES (X86)\WINDOWS KITS\10\LIB\10.0.15063.0\UM\X86\WINSPOOL.LIB
C:\PROGRAM FILES (X86)\WINDOWS KITS\10\LIB\10.0.15063.0\UM\X86\COMDLG32.LIB
C:\PROGRAM FILES (X86)\WINDOWS KITS\10\LIB\10.0.15063.0\UM\X86\ADVAPI32.LIB
C:\PROGRAM FILES (X86)\WINDOWS KITS\10\LIB\10.0.15063.0\UM\X86\SHELL32.LIB
C:\PROGRAM FILES (X86)\WINDOWS KITS\10\LIB\10.0.15063.0\UM\X86\OLE32.LIB
C:\PROGRAM FILES (X86)\WINDOWS KITS\10\LIB\10.0.15063.0\UM\X86\OLEAUT32.LIB
C:\PROGRAM FILES (X86)\WINDOWS KITS\10\LIB\10.0.15063.0\UM\X86\UUID.LIB
C:\PROGRAM FILES (X86)\WINDOWS KITS\10\LIB\10.0.15063.0\UM\X86\ODBC32.LIB
C:\PROGRAM FILES (X86)\WINDOWS KITS\10\LIB\10.0.15063.0\UM\X86\ODBCCP32.LIB
C:\USERS\BARRY\DOCUMENTS\VISUAL STUDIO 2017\PROJECTS\ASTAR\MYASTAR\MYASTAR\DEBUG\GRID.OBJ
C:\USERS\BARRY\DOCUMENTS\VISUAL STUDIO 2017\PROJECTS\ASTAR\MYASTAR\MYASTAR\DEBUG\PATHFINDER.OBJ
C:\USERS\BARRY\DOCUMENTS\VISUAL STUDIO 2017\PROJECTS\ASTAR\MYASTAR\MYASTAR\DEBUG\SOURCE.OBJ
C:\WINDOWS\SYSTEM32\TZRES.DLL
E:\PROGRAMS\VISUAL STUDIO 2017\COMMUNITY\VC\TOOLS\MSVC\14.11.25503\LIB\X86\MSVCPRTD.LIB
E:\PROGRAMS\VISUAL STUDIO 2017\COMMUNITY\VC\TOOLS\MSVC\14.11.25503\LIB\X86\MSVCRTD.LIB
E:\PROGRAMS\VISUAL STUDIO 2017\COMMUNITY\VC\TOOLS\MSVC\14.11.25503\LIB\X86\OLDNAMES.LIB
E:\PROGRAMS\VISUAL STUDIO 2017\COMMUNITY\VC\TOOLS\MSVC\14.11.25503\LIB\X86\VCRUNTIMED.LIB
C:\PROGRAM FILES (X86)\WINDOWS KITS\10\LIB\10.0.15063.0\UCRT\X86\UCRTD.LIB
